Répartition du nombre d'entités nommées : 
	Organisation : 212128
	Personne : 114193
	Lieu : 300455
	Total : 626776

Organisation : 33.84430801434644 %
Personne : 18.21910858105607 %
Lieu : 47.93658340459749 %