DEMOCRATIE_ET_CITOYENNETE
2 :	3586
0 :	3903
1 :	1680

LA_FISCALITE_ET_LES_DEPENSES_PUBLIQUES
2 :	9337
0 :	10573
1 :	7277

LA_TRANSITION_ECOLOGIQUE
2 :	12715
0 :	16419
1 :	13884

ORGANISATION_DE_LETAT_ET_DES_SERVICES_PUBLICS
2 :	14490
0 :	18469
1 :	15353

